[
  {
    "army": "Aleph",
    "name": "Aleph",
    "units": [
      {
        "comment": "Achilles",
        "id": 7001
      },
      {
        "comment": "Achilles v2 (Hoplite Armor)",
        "id": 7002
      },
      {
        "comment": "Asuras",
        "id": 7003
      },
      {
        "comment": "Dakini Tacbots",
        "id": 7004
      },
      {
        "comment": "Daleth Rebots",
        "id": 7005
      },
      {
        "comment": "Dasyus",
        "id": 7006
      },
      {
        "comment": "Deva Functionaries",
        "id": 7007
      },
      {
        "comment": "Garuda Tacbots",
        "id": 7008
      },
      {
        "comment": "Lamedh Rebots",
        "id": 7009
      },
      {
        "comment": "Maruts",
        "id": 7010
      },
      {
        "comment": "Myrmidon Officer",
        "id": 7011
      },
      {
        "comment": "Myrmidons",
        "id": 7012
      },
      {
        "comment": "Nagas",
        "id": 7013
      },
      {
        "comment": "Netrods",
        "id": 7014
      },
      {
        "comment": "Patroclus",
        "id": 7015
      },
      {
        "comment": "Probots",
        "id": 7016
      },
      {
        "comment": "Samekh Rebots",
        "id": 7017
      },
      {
        "comment": "Sophotects",
        "id": 7018
      },
      {
        "comment": "Yudbots",
        "id": 7019
      },
      {
        "comment": "Zayin Rebots",
        "id": 7020
      },
      {
        "comment": "Posthumans Proxy Mk.1",
        "id": 7021
      },
      {
        "comment": "Posthumans Proxy Mk.2",
        "id": 7022
      },
      {
        "comment": "Posthumans Proxy Mk.3",
        "id": 7023
      },
      {
        "comment": "Ekdromoi",
        "id": 7024
      },
      {
        "comment": "Chandra Spec-Ops",
        "id": 7025
      },
      {
        "comment": "Chandra Sergeant Thrasymedes",
        "id": 7026
      },
      {
        "comment": "Thorakitai",
        "id": 7027
      },
      {
        "comment": "Agema Marksman",
        "id": 7028
      },
      {
        "comment": "Eudoros",
        "id": 7029
      },
      {
        "comment": "Nesaie Alke",
        "id": 7030
      },
      {
        "comment": "Atalanta",
        "id": 7031
      },
      {
        "comment": "Diomedes",
        "id": 7032
      },
      {
        "comment": "Machaon",
        "id": 7033
      },
      {
        "comment": "Phoenix",
        "id": 7034
      },
      {
        "comment": "Ajax",
        "id": 7035
      },
      {
        "comment": "Penthesilea",
        "id": 7036
      },
      {
        "comment": "Thamyris",
        "id": 7037
      },
      {
        "comment": "Dactyls",
        "id": 7038
      },
      {
        "comment": "Teucer",
        "id": 7039
      },
      {
        "comment": "Drakios",
        "id": 7040
      },
      {
        "comment": "Scylla",
        "id": 7041
      },
      {
        "comment": "Acmon, Sergeant of Dactyls",
        "id": 7042
      },
      {
        "comment": "Hector, Homeridae's Champion",
        "id": 7043
      },
      {
        "comment": "Authorized Bounty Hunters",
        "id": 9018,
        "ava": "1"
      },
      {
        "comment": "Warcor",
        "id": 9017,
        "ava": "1"
      },
      {
        "comment": "Miranda Ashcroft",
        "id": 9019,
        "ava": "1"
      },
      {
        "comment": "Armand 'Le Muet'",
        "id": 9022,
        "ava": "1"
      },
      {
        "comment": "Krakot Renegades, Morat Fugitives",
        "id": 9023
      }
    ]
  }
]