[
  {
    "id": 7001,
    "army": "Aleph",
    "isc": "Achilles",
    "name": "Achilles",
    "type": "HI",
    "imp": "F",
    "irr": "",
    "cube": "2",
    "hackable": "X",
    "mov": "6-4",
    "cc": "24",
    "bs": "15",
    "ph": "15",
    "wip": "15",
    "arm": "4",
    "bts": "6",
    "w": "3",
    "s": "2",
    "ava": "1",
    "spec": [
      "Martial Arts L4",
      "Multiterrain",
      "ODD: Optical Disruptor",
      "Kinematika L2"
    ],
    "childs": [
      {
        "id": 1,
        "code": "Default",
        "codename": "MULTI",
        "cost": "73",
        "swc": "0",
        "spec": [],
        "bsw": [
          "Nanopulser",
          "MULTI Rifle"
        ],
        "ccw": [
          "EXP CCW",
          "Pistol"
        ]
      },
      {
        "id": 2,
        "code": "MULTI Lieutenant",
        "codename": "",
        "cost": "73",
        "swc": "0",
        "spec": [
          "Lieutenant"
        ],
        "bsw": [
          "Nanopulser",
          "MULTI Rifle"
        ],
        "ccw": [
          "EXP CCW",
          "Pistol"
        ]
      },
      {
        "id": 3,
        "code": "Spitfire",
        "codename": "",
        "cost": "75",
        "swc": "2.5",
        "spec": [],
        "bsw": [
          "Nanopulser",
          "Spitfire"
        ],
        "ccw": [
          "EXP CCW",
          "Pistol"
        ]
      },
      {
        "id": 4,
        "code": "Spitfire Lieutenant",
        "codename": "",
        "cost": "75",
        "swc": "2.5",
        "spec": [
          "Lieutenant"
        ],
        "bsw": [
          "Nanopulser",
          "Spitfire"
        ],
        "ccw": [
          "EXP CCW",
          "Pistol"
        ]
      }
    ]
  },
  {
    "id": 7002,
    "army": "Aleph",
    "isc": "Achilles v2 (Hoplite Armor)",
    "name": "Achilles v2",
    "type": "HI",
    "imp": "F",
    "irr": "",
    "cube": "2",
    "hackable": "X",
    "mov": "6-4",
    "cc": "24",
    "bs": "15",
    "ph": "15",
    "wip": "15",
    "arm": "6",
    "bts": "6",
    "w": "3",
    "s": "2",
    "ava": "1",
    "spec": [
      "Martial Arts L4",
      "Forward Deployment L1",
      "CH: Mimetism",
      "Kinematika L1"
    ],
    "childs": [
      {
        "id": 1,
        "code": "Default",
        "codename": "MULTI",
        "cost": "74",
        "swc": "0",
        "spec": [],
        "bsw": [
          "Nanopulser",
          "MULTI Rifle",
          "D.E.P."
        ],
        "ccw": [
          "EXP CCW",
          "Pistol"
        ]
      },
      {
        "id": 2,
        "code": "MULTI Lieutenant",
        "codename": "",
        "cost": "74",
        "swc": "0",
        "spec": [
          "Lieutenant"
        ],
        "bsw": [
          "Nanopulser",
          "MULTI Rifle",
          "D.E.P."
        ],
        "ccw": [
          "EXP CCW",
          "Pistol"
        ]
      },
      {
        "id": 3,
        "code": "Spitfire",
        "codename": "",
        "cost": "75",
        "swc": "2.5",
        "spec": [],
        "bsw": [
          "Nanopulser",
          "Spitfire"
        ],
        "ccw": [
          "EXP CCW",
          "Pistol"
        ]
      },
      {
        "id": 4,
        "code": "Spitfire Lieutenant",
        "codename": "",
        "cost": "75",
        "swc": "2.5",
        "spec": [
          "Lieutenant"
        ],
        "bsw": [
          "Nanopulser",
          "Spitfire"
        ],
        "ccw": [
          "EXP CCW",
          "Pistol"
        ]
      }
    ]
  },
  {
    "id": 7003,
    "army": "Aleph",
    "isc": "Asuras",
    "name": "Asura",
    "type": "HI",
    "imp": "",
    "irr": "",
    "cube": "2",
    "hackable": "X",
    "mov": "4-4",
    "cc": "16",
    "bs": "14",
    "ph": "14",
    "wip": "15",
    "arm": "5",
    "bts": "6",
    "w": "2",
    "s": "2",
    "ava": "2",
    "spec": [
      "Multispectral Visor L3",
      "V: No Wound Incapacitation"
    ],
    "childs": [
      {
        "id": 1,
        "code": "Default",
        "codename": "MULTI",
        "cost": "68",
        "swc": "0",
        "spec": [],
        "bsw": [
          "Nanopulser",
          "MULTI Rifle"
        ],
        "ccw": [
          "AP CCW",
          "Pistol"
        ]
      },
      {
        "id": 2,
        "code": "Lieutenant",
        "codename": "",
        "cost": "68",
        "swc": "0",
        "spec": [
          "Lieutenant"
        ],
        "bsw": [
          "Nanopulser",
          "MULTI Rifle"
        ],
        "ccw": [
          "AP CCW",
          "Pistol"
        ]
      },
      {
        "id": 3,
        "code": "Hacker",
        "codename": "",
        "cost": "72",
        "swc": "0.5",
        "spec": [
          "Hacker",
          "Hacking Device Plus"
        ],
        "bsw": [
          "Nanopulser",
          "Combi Rifle"
        ],
        "ccw": [
          "AP CCW",
          "Pistol"
        ]
      },
      {
        "id": 4,
        "code": "Spitfire",
        "codename": "",
        "cost": "70",
        "swc": "2",
        "spec": [],
        "bsw": [
          "Nanopulser",
          "Spitfire"
        ],
        "ccw": [
          "AP CCW",
          "Pistol"
        ]
      }
    ]
  },
  {
    "id": 7004,
    "army": "Aleph",
    "isc": "Dakini Tacbots",
    "name": "Dakini Tacbot",
    "type": "REM",
    "imp": "",
    "irr": "",
    "cube": "R",
    "hackable": "X",
    "mov": "6-4",
    "cc": "8",
    "bs": "11",
    "ph": "10",
    "wip": "13",
    "arm": "0",
    "bts": "3",
    "w": "1",
    "s": "2",
    "ava": "6",
    "spec": [
      "CH: Mimetism",
      "G: Remote Presence"
    ],
    "childs": [
      {
        "id": 1,
        "code": "Default",
        "codename": "Combi",
        "cost": "13",
        "swc": "0",
        "spec": [],
        "bsw": [
          "Combi Rifle"
        ],
        "ccw": [
          "Electric Pulse"
        ]
      },
      {
        "id": 2,
        "code": "Paramedic",
        "codename": "",
        "cost": "15",
        "swc": "0",
        "spec": [
          "Paramedic",
          "MediKit"
        ],
        "bsw": [
          "Combi Rifle"
        ],
        "ccw": [
          "Electric Pulse"
        ]
      },
      {
        "id": 3,
        "code": "MULTI Sniper Rifle",
        "codename": "",
        "cost": "21",
        "swc": "1.5",
        "spec": [],
        "bsw": [
          "MULTI Sniper Rifle"
        ],
        "ccw": [
          "Electric Pulse"
        ]
      },
      {
        "id": 4,
        "code": "Light Grenade Launcher",
        "codename": "",
        "cost": "17",
        "swc": "1",
        "spec": [],
        "bsw": [
          "Light Grenade Launcher",
          "Combi Rifle"
        ],
        "ccw": [
          "Electric Pulse"
        ]
      },
      {
        "id": 5,
        "code": "HMG",
        "codename": "",
        "cost": "21",
        "swc": "1",
        "spec": [],
        "bsw": [
          "HMG"
        ],
        "ccw": [
          "Electric Pulse"
        ]
      }
    ]
  },
  {
    "id": 7005,
    "army": "Aleph",
    "isc": "Daleth Rebots",
    "name": "Daleth Rebot",
    "type": "REM",
    "imp": "",
    "irr": "",
    "cube": "R",
    "hackable": "X",
    "mov": "6-4",
    "cc": "8",
    "bs": "11",
    "ph": "10",
    "wip": "13",
    "arm": "0",
    "bts": "3",
    "w": "1",
    "s": "3",
    "ava": "2",
    "spec": [
      "Climbing Plus",
      "Deactivator",
      "Forward Observer",
      "G: Remote Presence",
      "Sat-lock",
      "Repeater",
      "Sensor",
      "Sniffer"
    ],
    "childs": [
      {
        "id": 1,
        "code": "Default",
        "codename": "Combi",
        "cost": "17",
        "swc": "0",
        "spec": [],
        "bsw": [
          "Combi Rifle"
        ],
        "ccw": [
          "Electric Pulse"
        ]
      }
    ]
  },
  {
    "id": 7006,
    "army": "Aleph",
    "isc": "Dasyus",
    "name": "Dasyu",
    "type": "SK",
    "imp": "",
    "irr": "",
    "cube": "2",
    "mov": "4-4",
    "cc": "13",
    "bs": "12",
    "ph": "13",
    "wip": "14",
    "arm": "1",
    "bts": "0",
    "w": "1",
    "s": "2",
    "ava": "2",
    "spec": [
      "CH: TO Camouflage",
      "Infiltration",
      "Multiterrain",
      "V: No Wound Incapacitation"
    ],
    "childs": [
      {
        "id": 1,
        "code": "Default",
        "codename": "Combi",
        "cost": "35",
        "swc": "0",
        "spec": [],
        "bsw": [
          "Nanopulser",
          "Combi Rifle",
          "Antipersonnel Mines"
        ],
        "ccw": [
          "Knife",
          "Pistol"
        ]
      },
      {
        "id": 2,
        "code": "Lieutenant",
        "codename": "",
        "cost": "35",
        "swc": "2",
        "spec": [
          "Lieutenant"
        ],
        "bsw": [
          "Nanopulser",
          "Combi Rifle",
          "Antipersonnel Mines"
        ],
        "ccw": [
          "Knife",
          "Pistol"
        ]
      },
      {
        "id": 3,
        "code": "Observer",
        "codename": "",
        "cost": "36",
        "swc": "0",
        "spec": [
          "Forward Observer"
        ],
        "bsw": [
          "Nanopulser",
          "Combi Rifle",
          "Antipersonnel Mines"
        ],
        "ccw": [
          "Knife",
          "Pistol"
        ]
      },
      {
        "id": 4,
        "code": "Hacker",
        "codename": "",
        "cost": "40",
        "swc": "0.5",
        "spec": [
          "Hacker",
          "Assault Hacking Device"
        ],
        "bsw": [
          "Nanopulser",
          "Combi Rifle"
        ],
        "ccw": [
          "Knife",
          "Pistol"
        ]
      },
      {
        "id": 5,
        "code": "MULTI Sniper Rifle",
        "codename": "",
        "cost": "42",
        "swc": "1.5",
        "spec": [],
        "bsw": [
          "Nanopulser",
          "MULTI Sniper Rifle"
        ],
        "ccw": [
          "Knife",
          "Pistol"
        ]
      },
      {
        "id": 6,
        "code": "Boarding Shotgun",
        "codename": "",
        "cost": "34",
        "swc": "0",
        "spec": [],
        "bsw": [
          "Nanopulser",
          "Boarding Shotgun",
          "Antipersonnel Mines"
        ],
        "ccw": [
          "Knife",
          "Pistol"
        ]
      }
    ]
  },
  {
    "id": 7007,
    "army": "Aleph",
    "isc": "Deva Functionaries",
    "name": "Deva",
    "ava": "4",
    "spec": [],
    "profiles": [
      {
        "id": 1,
        "type": "LI",
        "imp": "",
        "irr": "",
        "cube": "2",
        "mov": "4-4",
        "cc": "14",
        "bs": "12",
        "ph": "11",
        "wip": "15",
        "arm": "2",
        "bts": "3",
        "w": "1",
        "s": "2",
        "spec": [
          "V: No Wound Incapacitation"
        ],
        "bsw": [],
        "ccw": []
      },
      {
        "id": 2,
        "isc": "Devabot",
        "name": "Devabot",
        "optionSpecific": "X",
        "type": "REM",
        "imp": "",
        "irr": "",
        "cube": "R",
        "hackable": "X",
        "mov": "6-4",
        "cc": "8",
        "bs": "10",
        "ph": "10",
        "wip": "11",
        "arm": "0",
        "bts": "3",
        "w": "1",
        "s": "2",
        "spec": [
          "G: Synchronized"
        ],
        "bsw": [
          "Heavy Flamethrower"
        ],
        "ccw": [
          "Electric Pulse"
        ],
        "independent": {
          "cost": "4",
          "swc": "0"
        }
      }
    ],
    "childs": [
      {
        "id": 1,
        "code": "Default",
        "codename": "Combi",
        "cost": "23",
        "swc": "0",
        "spec": [],
        "bsw": [
          "Nanopulser",
          "Combi Rifle"
        ],
        "ccw": [
          "Knife",
          "Pistol"
        ]
      },
      {
        "id": 2,
        "code": "Lieutenant+Devabot",
        "codename": "",
        "cost": "27",
        "swc": "0",
        "profile": "1",
        "spec": [
          "Lieutenant"
        ],
        "bsw": [
          "Nanopulser",
          "Combi Rifle"
        ],
        "ccw": [
          "Knife",
          "Pistol"
        ]
      },
      {
        "id": 3,
        "code": "Spitfire+MSV",
        "codename": "",
        "cost": "33",
        "swc": "1",
        "spec": [
          "Multispectral Visor L2"
        ],
        "bsw": [
          "Nanopulser",
          "Spitfire"
        ],
        "ccw": [
          "Knife",
          "Pistol"
        ]
      },
      {
        "id": 4,
        "code": "Sensor",
        "codename": "",
        "cost": "24",
        "swc": "0",
        "spec": [
          "Sensor"
        ],
        "bsw": [
          "Nanopulser",
          "Combi Rifle"
        ],
        "ccw": [
          "Knife",
          "Pistol"
        ]
      },
      {
        "id": 5,
        "code": "Hacker",
        "codename": "",
        "cost": "31",
        "swc": "0.5",
        "spec": [
          "Hacker",
          "Hacking Device"
        ],
        "bsw": [
          "Nanopulser",
          "Combi Rifle"
        ],
        "ccw": [
          "Knife",
          "Pistol"
        ]
      },
      {
        "id": 6,
        "code": "Devabot",
        "codename": "",
        "cost": "27",
        "swc": "0",
        "profile": "1",
        "spec": [],
        "bsw": [
          "Nanopulser",
          "Combi Rifle"
        ],
        "ccw": [
          "Knife",
          "Pistol"
        ]
      }
    ]
  },
  {
    "id": 7008,
    "army": "Aleph",
    "isc": "Garuda Tacbots",
    "name": "Garuda Tacbot",
    "type": "REM",
    "imp": "",
    "irr": "",
    "cube": "R",
    "hackable": "X",
    "mov": "6-4",
    "cc": "8",
    "bs": "12",
    "ph": "11",
    "wip": "13",
    "arm": "0",
    "bts": "3",
    "w": "1",
    "s": "2",
    "ava": "2",
    "spec": [
      "AD: Combat Jump",
      "CH: Mimetism",
      "G: Remote Presence"
    ],
    "childs": [
      {
        "id": 1,
        "code": "Default",
        "codename": "Combi",
        "cost": "22",
        "swc": "0",
        "spec": [],
        "bsw": [
          "Combi Rifle"
        ],
        "ccw": [
          "Electric Pulse"
        ]
      },
      {
        "id": 2,
        "code": "Boarding Shotgun",
        "codename": "",
        "cost": "21",
        "swc": "0",
        "spec": [],
        "bsw": [
          "Boarding Shotgun"
        ],
        "ccw": [
          "Electric Pulse"
        ]
      },
      {
        "id": 3,
        "code": "HMG",
        "codename": "",
        "cost": "30",
        "swc": "1.5",
        "spec": [],
        "bsw": [
          "HMG"
        ],
        "ccw": [
          "Electric Pulse"
        ]
      }
    ]
  },
  {
    "id": 7009,
    "army": "Aleph",
    "isc": "Lamedh Rebots",
    "name": "Lamedh Rebot",
    "type": "REM",
    "imp": "",
    "irr": "",
    "cube": "R",
    "hackable": "X",
    "mov": "6-6",
    "cc": "8",
    "bs": "8",
    "ph": "11",
    "wip": "13",
    "arm": "0",
    "bts": "3",
    "w": "1",
    "s": "3",
    "ava": "3",
    "spec": [
      "CH: Mimetism",
      "G: Remote Presence",
      "Multiterrain",
      "Repeater",
      "Sniffer"
    ],
    "childs": [
      {
        "id": 1,
        "code": "Default",
        "codename": "Repeater",
        "cost": "8",
        "swc": "0",
        "spec": [],
        "bsw": [
          "Flash Pulse"
        ],
        "ccw": [
          "Electric Pulse"
        ]
      }
    ]
  },
  {
    "id": 7010,
    "army": "Aleph",
    "isc": "Maruts",
    "name": "Marut",
    "type": "TAG",
    "imp": "",
    "irr": "",
    "cube": "R",
    "hackable": "X",
    "mov": "6-4",
    "cc": "18",
    "bs": "15",
    "ph": "17",
    "wip": "15",
    "arm": "8",
    "bts": "9",
    "w": "3",
    "s": "7",
    "ava": "1",
    "spec": [
      "ECM",
      "G: Remote Presence",
      "Multispectral Visor L2",
      "Multiterrain"
    ],
    "childs": [
      {
        "id": 1,
        "code": "Default",
        "codename": "MULTI HMG",
        "cost": "116",
        "swc": "3",
        "spec": [],
        "bsw": [
          "MULTI HMG",
          "Heavy Flamethrower",
          "Nanopulser"
        ],
        "ccw": [
          "AP CCW"
        ]
      },
      {
        "id": 2,
        "code": "Lieutenant",
        "codename": "",
        "cost": "120",
        "swc": "3",
        "spec": [
          "Lieutenant",
          "Strategos L3"
        ],
        "bsw": [
          "MULTI HMG",
          "Heavy Flamethrower",
          "Nanopulser"
        ],
        "ccw": [
          "AP CCW"
        ]
      }
    ]
  },
  {
    "id": 7011,
    "army": "Aleph",
    "isc": "Myrmidon Officer",
    "name": "Myrmidon Officer",
    "type": "WB",
    "imp": "F",
    "irr": "",
    "cube": "2",
    "mov": "4-4",
    "cc": "22",
    "bs": "12",
    "ph": "13",
    "wip": "14",
    "arm": "2",
    "bts": "3",
    "w": "1",
    "s": "2",
    "ava": "1",
    "spec": [
      "Martial Arts L3",
      "ODD: Optical Disruptor",
      "V: No Wound Incapacitation",
      "Kinematika L1",
      "Fireteam: Enomotarchos"
    ],
    "childs": [
      {
        "id": 1,
        "code": "Default",
        "codename": "Combi Lieutenant",
        "cost": "31",
        "swc": "0.5",
        "spec": [
          "Lieutenant"
        ],
        "bsw": [
          "Nanopulser",
          "Combi Rifle",
          "Smoke Grenades"
        ],
        "ccw": [
          "AP CCW",
          "Pistol"
        ]
      },
      {
        "id": 2,
        "code": "Chain of Command",
        "codename": "BS CC",
        "cost": "37",
        "swc": "1",
        "spec": [
          "Chain of Command"
        ],
        "bsw": [
          "Nanopulser",
          "Boarding Shotgun",
          "Zero-V Smoke Grenades"
        ],
        "ccw": [
          "AP CCW",
          "Pistol"
        ]
      },
      {
        "id": 3,
        "code": "CoC Combi",
        "codename": "Combi CC",
        "cost": "38",
        "swc": "1",
        "spec": [
          "Chain of Command"
        ],
        "bsw": [
          "Nanopulser",
          "Combi Rifle",
          "Smoke Grenades"
        ],
        "ccw": [
          "AP CCW",
          "Pistol"
        ]
      },
      {
        "id": 4,
        "code": "Lieutenant",
        "codename": "",
        "cost": "30",
        "swc": "0.5",
        "spec": [
          "Lieutenant"
        ],
        "bsw": [
          "Nanopulser",
          "Boarding Shotgun",
          "Zero-V Smoke Grenades"
        ],
        "ccw": [
          "AP CCW",
          "Pistol"
        ]
      }
    ]
  },
  {
    "id": 7012,
    "army": "Aleph",
    "isc": "Myrmidons",
    "name": "Myrmidon",
    "type": "WB",
    "imp": "F",
    "irr": "",
    "cube": "2",
    "mov": "4-4",
    "cc": "21",
    "bs": "12",
    "ph": "13",
    "wip": "13",
    "arm": "2",
    "bts": "0",
    "w": "1",
    "s": "2",
    "ava": "T",
    "spec": [
      "Martial Arts L3",
      "Kinematica L1",
      "ODD: Optical Disruptor"
    ],
    "childs": [
      {
        "id": 1,
        "code": "Default",
        "codename": "Combi",
        "cost": "25",
        "swc": "0",
        "spec": [],
        "bsw": [
          "Nanopulser",
          "Smoke Grenades",
          "Combi Rifle"
        ],
        "ccw": [
          "Pistol",
          "AP CCW"
        ]
      },
      {
        "id": 2,
        "code": "Hacker",
        "codename": "",
        "cost": "31",
        "swc": "0.5",
        "spec": [
          "Hacker",
          "Assault Hacking Device"
        ],
        "bsw": [
          "Nanopulser",
          "Smoke Grenades",
          "Combi Rifle"
        ],
        "ccw": [
          "Pistol",
          "AP CCW"
        ]
      },
      {
        "id": 3,
        "code": "Boarding Shotgun",
        "codename": "",
        "cost": "24",
        "swc": "0",
        "spec": [],
        "bsw": [
          "Nanopulser",
          "Smoke Grenades",
          "Boarding Shotgun"
        ],
        "ccw": [
          "Pistol",
          "AP CCW"
        ]
      },
      {
        "id": 4,
        "code": "Chain Rifle",
        "codename": "",
        "cost": "16",
        "swc": "0",
        "spec": [],
        "bsw": [
          "Nanopulser",
          "Smoke Grenades",
          "Chain Rifle"
        ],
        "ccw": [
          "Pistol",
          "AP CCW"
        ]
      },
      {
        "id": 5,
        "code": "Spitfire",
        "codename": "",
        "cost": "31",
        "swc": "1",
        "spec": [],
        "bsw": [
          "Nanopulser",
          "Smoke Grenades",
          "Spitfire"
        ],
        "ccw": [
          "Pistol",
          "AP CCW"
        ]
      },
      {
        "id": 6,
        "code": "DA CCW",
        "codename": "",
        "cost": "26",
        "swc": "0",
        "spec": [],
        "bsw": [
          "Nanopulser",
          "Smoke Grenades",
          "Combi Rifle"
        ],
        "ccw": [
          "Pistol",
          "DA CCW"
        ]
      }
    ]
  },
  {
    "id": 7013,
    "army": "Aleph",
    "isc": "Nagas",
    "name": "Naga",
    "type": "SK",
    "imp": "",
    "irr": "",
    "cube": "2",
    "mov": "4-4",
    "cc": "13",
    "bs": "12",
    "ph": "12",
    "wip": "14",
    "arm": "1",
    "bts": "0",
    "w": "1",
    "s": "2",
    "ava": "2",
    "spec": [
      "CH: Camouflage",
      "Infiltration",
      "Multiterrain",
      "V: Dogged"
    ],
    "childs": [
      {
        "id": 1,
        "code": "Default",
        "codename": "Antipersonnel Mines",
        "cost": "27",
        "swc": "0",
        "spec": [],
        "bsw": [
          "Combi Rifle",
          "Antipersonnel Mines"
        ],
        "ccw": [
          "Knife",
          "Pistol"
        ]
      },
      {
        "id": 2,
        "code": "Hacker",
        "codename": "",
        "cost": "32",
        "swc": "0.5",
        "spec": [
          "Hacker",
          "Assault Hacking Device"
        ],
        "bsw": [
          "Combi Rifle"
        ],
        "ccw": [
          "Knife",
          "Pistol"
        ]
      },
      {
        "id": 3,
        "code": "Minelayer",
        "codename": "",
        "cost": "27",
        "swc": "0.5",
        "spec": [
          "Minelayer"
        ],
        "bsw": [
          "Boarding Shotgun",
          "Antipersonnel Mines"
        ],
        "ccw": [
          "Knife",
          "Pistol"
        ]
      },
      {
        "id": 4,
        "code": "MULTI Sniper Rifle",
        "codename": "",
        "cost": "34",
        "swc": "1.5",
        "spec": [],
        "bsw": [
          "MULTI Sniper Rifle"
        ],
        "ccw": [
          "Knife",
          "Pistol"
        ]
      },
      {
        "id": 5,
        "code": "Monofilament Mines",
        "codename": "",
        "cost": "30",
        "swc": "0",
        "spec": [],
        "bsw": [
          "Combi Rifle",
          "Monofilament Mines"
        ],
        "ccw": [
          "Knife",
          "Pistol"
        ]
      }
    ]
  },
  {
    "id": 7014,
    "army": "Aleph",
    "isc": "Netrods",
    "name": "Netrod",
    "type": "N/A",
    "imp": "",
    "irr": "",
    "cube": "R",
    "mov": "0-0",
    "cc": "0",
    "bs": "0",
    "ph": "12",
    "wip": "0",
    "arm": "0",
    "bts": "3",
    "w": "1",
    "wtype": "str",
    "s": "2",
    "ava": "3",
    "spec": [
      "AD: Combat Jump",
      "AI Beacon"
    ],
    "childs": [
      {
        "id": 1,
        "code": "Default",
        "codename": "AI Beacon",
        "cost": "4",
        "swc": "0",
        "spec": [],
        "bsw": [],
        "ccw": [
          "Electric Pulse"
        ]
      }
    ]
  },
  {
    "id": 7015,
    "army": "Aleph",
    "isc": "Patroclus",
    "name": "Patroclus",
    "type": "MI",
    "imp": "",
    "irr": "",
    "cube": "2",
    "mov": "6-4",
    "cc": "21",
    "bs": "13",
    "ph": "13",
    "wip": "13",
    "arm": "3",
    "bts": "0",
    "w": "1",
    "s": "2",
    "ava": "1",
    "spec": [
      "Holoprojector L1",
      "ODD: Optical Disruptor",
      "Martial Arts L3",
      "V: No Wound Incapacitation",
      "Fireteam: Enomotarchos",
      "Kinematika L1"
    ],
    "childs": [
      {
        "id": 1,
        "code": "Default",
        "codename": "MULTI",
        "cost": "52",
        "swc": "0",
        "spec": [],
        "bsw": [
          "Nanopulser",
          "Smoke Grenades",
          "MULTI Rifle"
        ],
        "ccw": [
          "EXP CCW",
          "Pistol"
        ]
      },
      {
        "id": 2,
        "code": "Spitfire",
        "codename": "",
        "cost": "54",
        "swc": "1.5",
        "spec": [],
        "bsw": [
          "Nanopulser",
          "Smoke Grenades",
          "Spitfire"
        ],
        "ccw": [
          "EXP CCW",
          "Pistol"
        ]
      }
    ]
  },
  {
    "id": 7016,
    "army": "Aleph",
    "isc": "Probots",
    "name": "Probot",
    "type": "REM",
    "imp": "",
    "irr": "",
    "cube": "R",
    "hackable": "X",
    "mov": "4-4",
    "cc": "8",
    "bs": "11",
    "ph": "10",
    "wip": "13",
    "arm": "2",
    "bts": "3",
    "w": "1",
    "s": "4",
    "ava": "2",
    "spec": [
      "Baggage",
      "G: Remote Presence",
      "Repeater"
    ],
    "childs": [
      {
        "id": 1,
        "code": "Default",
        "codename": "Minesweeper",
        "cost": "8",
        "swc": "0",
        "spec": [
          "Minesweeper"
        ],
        "bsw": [],
        "ccw": [
          "Electric Pulse"
        ]
      },
      {
        "id": 2,
        "code": "Combi",
        "codename": "",
        "cost": "21",
        "swc": "0",
        "spec": [
          "Total Reaction"
        ],
        "bsw": [
          "Combi Rifle"
        ],
        "ccw": [
          "Electric Pulse"
        ]
      },
      {
        "id": 3,
        "code": "EVO",
        "codename": "",
        "cost": "13",
        "swc": "0.5",
        "spec": [
          "EVO Repeater"
        ],
        "bsw": [],
        "ccw": [
          "Electric Pulse"
        ]
      }
    ]
  },
  {
    "id": 7017,
    "army": "Aleph",
    "isc": "Samekh Rebots",
    "name": "Samekh Rebot",
    "type": "REM",
    "imp": "",
    "irr": "",
    "cube": "R",
    "hackable": "X",
    "mov": "6-4",
    "cc": "8",
    "bs": "12",
    "ph": "10",
    "wip": "13",
    "arm": "0",
    "bts": "3",
    "w": "1",
    "s": "3",
    "ava": "2",
    "spec": [
      "G: Remote Presence"
    ],
    "childs": [
      {
        "id": 1,
        "code": "Default",
        "codename": "Smart Missile Launcher",
        "cost": "18",
        "swc": "1.5",
        "spec": [],
        "bsw": [
          "Smart Missile Launcher"
        ],
        "ccw": [
          "Electric Pulse"
        ]
      }
    ]
  },
  {
    "id": 7018,
    "army": "Aleph",
    "isc": "Sophotects",
    "name": "Sophotects",
    "type": "LI",
    "imp": "",
    "irr": "",
    "cube": "2",
    "mov": "6-4",
    "cc": "13",
    "bs": "11",
    "ph": "11",
    "wip": "15",
    "arm": "2",
    "bts": "0",
    "w": "1",
    "s": "2",
    "ava": "2",
    "spec": [
      "Doctor",
      "Engineer",
      "V: No Wound Incapacitation"
    ],
    "childs": [
      {
        "id": 1,
        "code": "Default",
        "codename": "Doctor+Engineer",
        "cost": "31",
        "swc": "0",
        "spec": [],
        "bsw": [
          "Combi Rifle"
        ],
        "ccw": [
          "D-Charges",
          "Knife",
          "Pistol"
        ]
      }
    ]
  },
  {
    "id": 7019,
    "army": "Aleph",
    "isc": "Yudbots",
    "name": "Yudbot",
    "type": "REM",
    "imp": "",
    "irr": "",
    "cube": "R",
    "hackable": "X",
    "mov": "6-4",
    "cc": "8",
    "bs": "8",
    "ph": "10",
    "wip": "13",
    "arm": "0",
    "bts": "3",
    "w": "1",
    "s": "1",
    "ava": "2",
    "spec": [
      "CH: Mimetism",
      "G: Servant"
    ],
    "childs": [
      {
        "id": 1,
        "code": "Default",
        "codename": "Servant",
        "cost": "3",
        "swc": "0",
        "spec": [],
        "bsw": [],
        "ccw": [
          "Electric Pulse"
        ]
      }
    ]
  },
  {
    "id": 7020,
    "army": "Aleph",
    "isc": "Zayin Rebots",
    "name": "Zayin Rebot",
    "type": "REM",
    "imp": "",
    "irr": "",
    "cube": "R",
    "hackable": "X",
    "mov": "6-4",
    "cc": "8",
    "bs": "11",
    "ph": "10",
    "wip": "13",
    "arm": "0",
    "bts": "3",
    "w": "1",
    "s": "3",
    "ava": "2",
    "spec": [
      "360\u00b0 Visor",
      "Climbing Plus",
      "G: Remote Presence",
      "Total Reaction"
    ],
    "childs": [
      {
        "id": 1,
        "code": "Default",
        "codename": "HMG",
        "cost": "26",
        "swc": "1",
        "spec": [],
        "bsw": [
          "HMG"
        ],
        "ccw": [
          "Electric Pulse"
        ]
      }
    ]
  },
  {
    "id": 7021,
    "army": "Aleph",
    "isc": "Posthumans Proxy Mk.1",
    "name": "Proxy Mk.1",
    "image": "Post humans",
    "type": "LI",
    "imp": "",
    "irr": "",
    "cube": "J",
    "mov": "4-4",
    "cc": "13",
    "bs": "13",
    "ph": "11",
    "wip": "15",
    "arm": "2",
    "bts": "3",
    "w": "1",
    "s": "2",
    "ava": "1",
    "spec": [
      "G: Jumper L1",
      "CH: Mimetism",
      "V: No Wound Incapacitation"
    ],
    "childs": [
      {
        "id": 1,
        "code": "Doctor",
        "codename": "",
        "cost": "14",
        "swc": "0",
        "spec": [
          "Doctor",
          "MediKit"
        ],
        "bsw": [
          "Combi Rifle",
          "Nanopulser"
        ],
        "ccw": [
          "Pistol",
          "Knife"
        ]
      },
      {
        "id": 2,
        "code": "Engineer",
        "codename": "",
        "cost": "14",
        "swc": "0",
        "spec": [
          "Engineer"
        ],
        "bsw": [
          "Combi Rifle",
          "Nanopulser"
        ],
        "ccw": [
          "Pistol",
          "Knife",
          "D-Charges"
        ]
      },
      {
        "id": 3,
        "code": "Default",
        "codename": "Hacker",
        "cost": "18",
        "swc": "0.5",
        "spec": [
          "Hacker",
          "Hacking Device"
        ],
        "bsw": [
          "Combi Rifle",
          "Nanopulser"
        ],
        "ccw": [
          "Pistol",
          "Knife"
        ]
      }
    ]
  },
  {
    "id": 7022,
    "army": "Aleph",
    "isc": "Posthumans Proxy Mk.2",
    "name": "Proxy Mk.2",
    "image": "Post humans",
    "type": "SK",
    "imp": "",
    "irr": "",
    "cube": "J",
    "mov": "4-4",
    "cc": "13",
    "bs": "13",
    "ph": "13",
    "wip": "15",
    "arm": "1",
    "bts": "0",
    "w": "1",
    "s": "2",
    "ava": "1",
    "spec": [
      "G: Jumper L1",
      "CH: TO Camouflage",
      "Infiltration",
      "V: No Wound Incapacitation"
    ],
    "childs": [
      {
        "id": 1,
        "code": "Hacker",
        "codename": "",
        "cost": "21",
        "swc": "0.5",
        "spec": [
          "Hacker",
          "Assault Hacking Device"
        ],
        "bsw": [
          "Nanopulser",
          "Boarding Shotgun"
        ],
        "ccw": [
          "Pistol",
          "Knife"
        ]
      },
      {
        "id": 2,
        "code": "Default",
        "codename": "MULTI Sniper Rifle",
        "cost": "24",
        "swc": "1.5",
        "spec": [],
        "bsw": [
          "Nanopulser",
          "MULTI Sniper Rifle"
        ],
        "ccw": [
          "Pistol",
          "Knife"
        ]
      }
    ]
  },
  {
    "id": 7023,
    "army": "Aleph",
    "isc": "Posthumans Proxy Mk.3",
    "name": "Proxy Mk.3",
    "image": "Post humans",
    "type": "HI",
    "imp": "",
    "irr": "",
    "cube": "J",
    "hackable": "X",
    "mov": "4-4",
    "cc": "13",
    "bs": "13",
    "ph": "14",
    "wip": "15",
    "arm": "4",
    "bts": "3",
    "w": "2",
    "s": "2",
    "ava": "1",
    "spec": [
      "G: Jumper L1"
    ],
    "childs": [
      {
        "id": 1,
        "code": "Default",
        "codename": "Spitfire",
        "cost": "26",
        "swc": "2",
        "spec": [],
        "bsw": [
          "Spitfire",
          "Nanopulser"
        ],
        "ccw": [
          "Pistol",
          "Knife"
        ]
      }
    ]
  },
  {
    "id": 7024,
    "army": "Aleph",
    "isc": "Ekdromoi",
    "name": "Ekdromos",
    "type": "LI",
    "imp": "F",
    "irr": "",
    "cube": "2",
    "mov": "4-4",
    "cc": "18",
    "bs": "12",
    "ph": "13",
    "wip": "14",
    "arm": "2",
    "bts": "0",
    "w": "1",
    "s": "2",
    "ava": "2",
    "spec": [
      "AD: Combat Jump",
      "Super-Jump",
      "Martial Arts L3"
    ],
    "childs": [
      {
        "id": 1,
        "code": "Hacker",
        "codename": "",
        "cost": "25",
        "swc": "0.5",
        "spec": [
          "Hacker",
          "Assault Hacking Device"
        ],
        "bsw": [
          "Nanopulser",
          "Chain Rifle"
        ],
        "ccw": [
          "Pistol",
          "DA CCW"
        ]
      },
      {
        "id": 2,
        "code": "Boarding Shotgun",
        "codename": "",
        "cost": "28",
        "swc": "0",
        "spec": [],
        "bsw": [
          "Nanopulser",
          "Boarding Shotgun"
        ],
        "ccw": [
          "Pistol",
          "DA CCW"
        ]
      },
      {
        "id": 3,
        "code": "Chain Rifle",
        "codename": "",
        "cost": "19",
        "swc": "0",
        "spec": [],
        "bsw": [
          "Nanopulser",
          "Chain Rifle"
        ],
        "ccw": [
          "Pistol",
          "DA CCW"
        ]
      },
      {
        "id": 4,
        "code": "HMG",
        "codename": "",
        "cost": "37",
        "swc": "1.5",
        "spec": [],
        "bsw": [
          "Nanopulser",
          "HMG"
        ],
        "ccw": [
          "Pistol",
          "DA CCW"
        ]
      },
      {
        "id": 5,
        "code": "Combi",
        "codename": "",
        "cost": "28",
        "swc": "0",
        "spec": [],
        "bsw": [
          "Nanopulser",
          "Combi Rifle"
        ],
        "ccw": [
          "Pistol",
          "AP CCW"
        ]
      },
      {
        "id": 6,
        "code": "Default",
        "codename": "Combi",
        "cost": "29",
        "swc": "0",
        "spec": [],
        "bsw": [
          "Nanopulser",
          "Combi Rifle"
        ],
        "ccw": [
          "Pistol",
          "DA CCW"
        ]
      }
    ]
  },
  {
    "id": 7025,
    "army": "Aleph",
    "isc": "Chandra Spec-Ops",
    "name": "Chandra",
    "type": "MI",
    "imp": "",
    "irr": "",
    "cube": "",
    "mov": "X-X",
    "cc": "X",
    "bs": "X",
    "ph": "X",
    "wip": "X",
    "arm": "X",
    "bts": "X",
    "w": "X",
    "ava": "1",
    "spec": [
      "Spec-Op"
    ],
    "childs": [
      {
        "id": 1,
        "code": "Default",
        "codename": "Spec-Ops",
        "cost": "0",
        "swc": "0",
        "spec": [],
        "bsw": [],
        "ccw": []
      }
    ]
  },
  {
    "id": 7026,
    "army": "Aleph",
    "isc": "Chandra Sergeant Thrasymedes",
    "name": "Chandra Sergeant Thrasymedes",
    "image": "Chandra Spec-Ops",
    "type": "MI",
    "imp": "",
    "irr": "",
    "cube": "",
    "mov": "4-2",
    "cc": "19",
    "bs": "12",
    "ph": "13",
    "wip": "13",
    "arm": "3",
    "bts": "0",
    "w": "1",
    "s": "2",
    "ava": "1",
    "spec": [
      "ODD: Optical Disruptor",
      "360\u00b0 Visor",
      "Specialist Troop"
    ],
    "childs": [
      {
        "id": 1,
        "code": "Default",
        "codename": "Infiltrator",
        "cost": "27",
        "swc": "0",
        "spec": [
          "Infiltration"
        ],
        "bsw": [
          "Submachine Gun",
          "Nanopulser",
          "Flash Grenades"
        ],
        "ccw": [
          "Pistol",
          "Shock CCW"
        ]
      },
      {
        "id": 2,
        "code": "Enomotarchos",
        "codename": "",
        "cost": "30",
        "swc": "0.5",
        "spec": [
          "Fireteam: Enomotarchos"
        ],
        "bsw": [
          "Submachine Gun",
          "Nanopulser",
          "Flash Grenades",
          "Light Rocket Launcher"
        ],
        "ccw": [
          "Pistol",
          "Shock CCW"
        ]
      }
    ]
  },
  {
    "id": 7027,
    "army": "Aleph",
    "isc": "Thorakitai",
    "name": "Thorakites",
    "type": "MI",
    "imp": "F",
    "irr": "",
    "cube": "2",
    "mov": "4-2",
    "cc": "14",
    "bs": "12",
    "ph": "11",
    "wip": "13",
    "arm": "3",
    "bts": "0",
    "w": "1",
    "s": "2",
    "ava": "3",
    "spec": [
      "360\u00b0 Visor"
    ],
    "childs": [
      {
        "id": 1,
        "code": "Default",
        "codename": "Submachine Gun",
        "cost": "12",
        "swc": "0",
        "spec": [],
        "bsw": [
          "Submachine Gun",
          "Chain Rifle",
          "Flash Grenades"
        ],
        "ccw": [
          "Pistol",
          "Knife"
        ]
      },
      {
        "id": 2,
        "code": "Combi",
        "codename": "",
        "cost": "16",
        "swc": "0",
        "spec": [],
        "bsw": [
          "Combi Rifle",
          "Nanopulser",
          "Flash Grenades"
        ],
        "ccw": [
          "Pistol",
          "Knife"
        ]
      },
      {
        "id": 3,
        "code": "Spitfire",
        "codename": "",
        "cost": "22",
        "swc": "1.5",
        "spec": [],
        "bsw": [
          "Spitfire",
          "Nanopulser"
        ],
        "ccw": [
          "Pistol",
          "Knife"
        ]
      },
      {
        "id": 4,
        "code": "Light Rocket Launcher",
        "codename": "",
        "cost": "18",
        "swc": "1",
        "spec": [],
        "bsw": [
          "Submachine Gun",
          "Light Rocket Launcher"
        ],
        "ccw": [
          "Pistol",
          "Knife"
        ]
      },
      {
        "id": 5,
        "code": "Engineer",
        "codename": "",
        "cost": "20",
        "swc": "0",
        "spec": [
          "Engineer"
        ],
        "bsw": [
          "Combi Rifle",
          "Nanopulser",
          "Flash Grenades"
        ],
        "ccw": [
          "Pistol",
          "Knife",
          "D-Charges"
        ]
      },
      {
        "id": 6,
        "code": "Observer",
        "codename": "",
        "cost": "13",
        "swc": "0",
        "spec": [
          "Forward Observer"
        ],
        "bsw": [
          "Submachine Gun",
          "Chain Rifle",
          "Flash Grenades"
        ],
        "ccw": [
          "Pistol",
          "Knife"
        ]
      },
      {
        "id": 7,
        "code": "Paramedic",
        "codename": "",
        "cost": "14",
        "swc": "0",
        "spec": [
          "MediKit"
        ],
        "bsw": [
          "Submachine Gun",
          "Chain Rifle",
          "Flash Grenades"
        ],
        "ccw": [
          "Pistol",
          "Knife"
        ]
      }
    ]
  },
  {
    "id": 7028,
    "army": "Aleph",
    "isc": "Agema Marksman",
    "name": "Agema",
    "type": "MI",
    "imp": "",
    "irr": "",
    "cube": "2",
    "mov": "4-2",
    "cc": "14",
    "bs": "13",
    "ph": "11",
    "wip": "14",
    "arm": "2",
    "bts": "3",
    "w": "1",
    "s": "2",
    "ava": "1",
    "spec": [
      "Multispectral Visor L2",
      "V: Courage"
    ],
    "childs": [
      {
        "id": 1,
        "code": "Default",
        "codename": "Mk12",
        "cost": "29",
        "swc": "0.5",
        "spec": [
          "X Visor"
        ],
        "bsw": [
          "Mk12"
        ],
        "ccw": [
          "Pistol",
          "Knife"
        ]
      },
      {
        "id": 2,
        "code": "MULTI Sniper Rifle",
        "codename": "",
        "cost": "30",
        "swc": "1.5",
        "spec": [],
        "bsw": [
          "MULTI Sniper Rifle"
        ],
        "ccw": [
          "Pistol",
          "Knife"
        ]
      },
      {
        "id": 3,
        "code": "Missile Launcher",
        "codename": "",
        "cost": "27",
        "swc": "1.5",
        "spec": [],
        "bsw": [
          "Missile Launcher"
        ],
        "ccw": [
          "Pistol",
          "Knife"
        ]
      }
    ]
  },
  {
    "id": 7029,
    "army": "Aleph",
    "isc": "Eudoros",
    "name": "Eudoros",
    "type": "WB",
    "imp": "I",
    "irr": "",
    "cube": "2",
    "mov": "4-4",
    "cc": "21",
    "bs": "13",
    "ph": "13",
    "wip": "14",
    "arm": "3",
    "bts": "6",
    "w": "1",
    "s": "2",
    "ava": "1",
    "spec": [
      "Fireteam: Enomotarchos",
      "Martial Arts L4",
      "Number 2",
      "ODD: Optical Disruptor",
      "V: No Wound Incapacitation",
      "Kinematika L1"
    ],
    "childs": [
      {
        "id": 1,
        "code": "Default",
        "codename": "Mk12",
        "cost": "40",
        "swc": "0",
        "spec": [],
        "bsw": [
          "Mk12",
          "Nanopulser",
          "Zero-V Smoke Grenades"
        ],
        "ccw": [
          "Pistol",
          "DA CCW"
        ]
      },
      {
        "id": 2,
        "code": "Lieutenant",
        "codename": "",
        "cost": "40",
        "swc": "0",
        "spec": [
          "Lieutenant"
        ],
        "bsw": [
          "Mk12",
          "Nanopulser",
          "Zero-V Smoke Grenades"
        ],
        "ccw": [
          "Pistol",
          "DA CCW"
        ]
      }
    ]
  },
  {
    "id": 7030,
    "army": "Aleph",
    "isc": "Nesaie Alke",
    "name": "Alke",
    "type": "MI",
    "imp": "F",
    "irr": "",
    "cube": "2",
    "mov": "4-2",
    "cc": "14",
    "bs": "13",
    "ph": "11",
    "wip": "14",
    "arm": "3",
    "bts": "3",
    "w": "1",
    "s": "2",
    "ava": "1",
    "spec": [
      "Fireteam: Enomotarchos",
      "360\u00b0 Visor",
      "V: Courage"
    ],
    "childs": [
      {
        "id": 1,
        "code": "Default",
        "codename": "Spitfire",
        "cost": "26",
        "swc": "1.5",
        "spec": [],
        "bsw": [
          "Spitfire",
          "Nanopulser"
        ],
        "ccw": [
          "Pistol",
          "Knife"
        ]
      },
      {
        "id": 2,
        "code": "Lieutenant",
        "codename": "",
        "cost": "26",
        "swc": "1.5",
        "spec": [
          "Lieutenant"
        ],
        "bsw": [
          "Spitfire",
          "Nanopulser"
        ],
        "ccw": [
          "Pistol",
          "Knife"
        ]
      }
    ]
  },
  {
    "id": 7031,
    "army": "Aleph",
    "isc": "Atalanta",
    "name": "Atalanta",
    "ava": "1",
    "spec": [],
    "profiles": [
      {
        "id": 1,
        "name": "Atalanta",
        "type": "MI",
        "imp": "",
        "irr": "",
        "cube": "2",
        "mov": "4-2",
        "cc": "14",
        "bs": "14",
        "ph": "11",
        "wip": "14",
        "arm": "2",
        "bts": "6",
        "w": "1",
        "s": "2",
        "spec": [
          "Multispectral Visor L2"
        ],
        "bsw": [],
        "ccw": []
      },
      {
        "id": 2,
        "name": "Spotbot",
        "type": "REM",
        "imp": "",
        "irr": "",
        "cube": "G",
        "hackable": "X",
        "mov": "4-4",
        "cc": "8",
        "bs": "8",
        "ph": "10",
        "wip": "13",
        "arm": "1",
        "bts": "6",
        "w": "1",
        "s": "1",
        "spec": [
          "Spotter",
          "Multispectral Visor L2",
          "CH: Mimetism",
          "G: Synchronized"
        ],
        "bsw": [],
        "ccw": [
          "Electric Pulse"
        ],
        "independent": {
          "cost": "2",
          "swc": "0"
        }
      }
    ],
    "childs": [
      {
        "id": 1,
        "code": "Default",
        "codename": "MULTI Sniper Rifle",
        "cost": "43",
        "swc": "1.5",
        "spec": [],
        "bsw": [
          "MULTI Sniper Rifle"
        ],
        "ccw": [
          "Pistol",
          "Knife"
        ]
      }
    ]
  },
  {
    "id": 7032,
    "army": "Aleph",
    "isc": "Diomedes",
    "name": "Diomedes",
    "type": "LI",
    "imp": "F",
    "irr": "",
    "cube": "2",
    "mov": "4-4",
    "cc": "20",
    "bs": "12",
    "ph": "13",
    "wip": "14",
    "arm": "2",
    "bts": "3",
    "w": "1",
    "s": "2",
    "ava": "1",
    "spec": [
      "Martial Arts L3",
      "AD: Combat Jump",
      "Super-Jump",
      "V: No Wound Incapacitation"
    ],
    "childs": [
      {
        "id": 1,
        "code": "Default",
        "codename": "Mk12",
        "cost": "43",
        "swc": "0",
        "spec": [],
        "bsw": [
          "Mk12",
          "Nanopulser"
        ],
        "ccw": [
          "Assault Pistol",
          "DA CCW"
        ]
      },
      {
        "id": 2,
        "code": "Lieutenant",
        "codename": "",
        "cost": "43",
        "swc": "0",
        "spec": [
          "Lieutenant"
        ],
        "bsw": [
          "Mk12",
          "Nanopulser"
        ],
        "ccw": [
          "Assault Pistol",
          "DA CCW"
        ]
      }
    ]
  },
  {
    "id": 7033,
    "army": "Aleph",
    "isc": "Machaon",
    "name": "Machaon",
    "type": "WB",
    "imp": "F",
    "irr": "",
    "cube": "2",
    "mov": "4-4",
    "cc": "21",
    "bs": "12",
    "ph": "13",
    "wip": "15",
    "arm": "2",
    "bts": "3",
    "w": "1",
    "s": "2",
    "ava": "1",
    "spec": [
      "Fireteam: Enomotarchos",
      "Martial Arts L3",
      "MediKit",
      "Doctor",
      "ODD: Optical Disruptor",
      "V: No Wound Incapacitation",
      "Kinematika L1"
    ],
    "childs": [
      {
        "id": 1,
        "code": "Default",
        "codename": "Combi",
        "cost": "38",
        "swc": "0.5",
        "spec": [],
        "bsw": [
          "Combi Rifle",
          "Nanopulser",
          "Zero-V Smoke Grenades"
        ],
        "ccw": [
          "Pistol",
          "DA CCW"
        ]
      },
      {
        "id": 2,
        "code": "Lieutenant",
        "codename": "",
        "cost": "38",
        "swc": "0.5",
        "spec": [
          "Lieutenant"
        ],
        "bsw": [
          "Combi Rifle",
          "Nanopulser",
          "Zero-V Smoke Grenades"
        ],
        "ccw": [
          "Pistol",
          "DA CCW"
        ]
      }
    ]
  },
  {
    "id": 7034,
    "army": "Aleph",
    "isc": "Phoenix",
    "name": "Phoenix",
    "type": "WB",
    "imp": "F",
    "irr": "",
    "cube": "2",
    "mov": "4-4",
    "cc": "21",
    "bs": "13",
    "ph": "13",
    "wip": "14",
    "arm": "2",
    "bts": "3",
    "w": "1",
    "s": "2",
    "ava": "1",
    "spec": [
      "Fireteam: Enomotarchos",
      "Martial Arts L3",
      "ODD: Optical Disruptor",
      "V: No Wound Incapacitation",
      "Kinematika L1"
    ],
    "childs": [
      {
        "id": 1,
        "code": "Default",
        "codename": "Heavy Rocket Launcher",
        "cost": "35",
        "swc": "2",
        "spec": [],
        "bsw": [
          "Heavy Rocket Launcher",
          "Nanopulser",
          "Smoke Grenades"
        ],
        "ccw": [
          "Assault Pistol",
          "DA CCW"
        ]
      },
      {
        "id": 2,
        "code": "Lieutenant",
        "codename": "",
        "cost": "35",
        "swc": "2",
        "spec": [
          "Lieutenant"
        ],
        "bsw": [
          "Heavy Rocket Launcher",
          "Nanopulser",
          "Smoke Grenades"
        ],
        "ccw": [
          "Assault Pistol",
          "DA CCW"
        ]
      }
    ]
  },
  {
    "id": 7035,
    "army": "Aleph",
    "isc": "Ajax",
    "name": "Ajax",
    "type": "HI",
    "imp": "I",
    "irr": "",
    "cube": "2",
    "hackable": "X",
    "mov": "4-4",
    "cc": "22",
    "bs": "13",
    "ph": "16",
    "wip": "12",
    "arm": "5",
    "bts": "6",
    "w": "2",
    "s": "5",
    "ava": "1",
    "spec": [
      "Fireteam: Enomotarchos",
      "Berserk",
      "Natural Born Warrior",
      "V: No Wound Incapacitation",
      "Kinematika L2"
    ],
    "childs": [
      {
        "id": 1,
        "code": "Default",
        "codename": "Combi",
        "cost": "39",
        "swc": "0",
        "spec": [],
        "bsw": [
          "Combi Rifle (2)",
          "Nanopulser"
        ],
        "ccw": [
          "AP Heavy Pistol",
          "EXP CCW"
        ]
      },
      {
        "id": 2,
        "code": "Lieutenant",
        "codename": "",
        "cost": "39",
        "swc": "0",
        "spec": [
          "Lieutenant"
        ],
        "bsw": [
          "Combi Rifle (2)",
          "Nanopulser"
        ],
        "ccw": [
          "AP Heavy Pistol",
          "EXP CCW"
        ]
      }
    ]
  },
  {
    "id": 7036,
    "army": "Aleph",
    "isc": "Penthesilea",
    "name": "Penthesilea",
    "ava": "1",
    "spec": [],
    "profiles": [
      {
        "id": 1,
        "name": "Penthesilea",
        "type": "WB",
        "imp": "I",
        "irr": "",
        "cube": "2",
        "mov": "8-6",
        "cc": "22",
        "bs": "13",
        "ph": "12",
        "wip": "14",
        "arm": "1",
        "bts": "3",
        "w": "1",
        "s": "4",
        "spec": [
          "i-Khol L2",
          "Motorcycle",
          "ODD: Optical Disruptor",
          "V: No Wound Incapacitation",
          "Kinematika L2"
        ],
        "bsw": [],
        "ccw": []
      },
      {
        "id": 2,
        "name": "Dismounted",
        "mov": "4-4",
        "s": "2",
        "spec": [
          "i-Khol L2",
          "ODD: Optical Disruptor",
          "V: No Wound Incapacitation"
        ],
        "bsw": [],
        "ccw": []
      }
    ],
    "childs": [
      {
        "id": 1,
        "code": "Default",
        "codename": "Amazon Warrioress",
        "cost": "44",
        "swc": "0",
        "spec": [],
        "bsw": [
          "Combi Rifle",
          "Contender",
          "Nanopulser"
        ],
        "ccw": [
          "Pistol",
          "Monofilament CCW"
        ]
      }
    ]
  },
  {
    "id": 7037,
    "army": "Aleph",
    "isc": "Thamyris",
    "name": "Thamyris",
    "type": "LI",
    "imp": "",
    "irr": "",
    "cube": "2",
    "mov": "4-4",
    "cc": "17",
    "bs": "12",
    "ph": "12",
    "wip": "14",
    "arm": "1",
    "bts": "3",
    "w": "1",
    "s": "2",
    "ava": "1",
    "spec": [
      "Journalist L2",
      "V: No Wound Incapacitation",
      "Hacker",
      "Hacking Device"
    ],
    "childs": [
      {
        "id": 1,
        "code": "Default",
        "codename": "Hacker",
        "cost": "25",
        "swc": "0.5",
        "spec": [],
        "bsw": [
          "Marker",
          "Nanopulser"
        ],
        "ccw": [
          "Assault Pistol",
          "Knife"
        ]
      }
    ]
  },
  {
    "id": 7038,
    "army": "Aleph",
    "isc": "Dactyls",
    "name": "Dactyl",
    "type": "LI",
    "imp": "",
    "irr": "",
    "cube": "2",
    "mov": "4-4",
    "cc": "16",
    "bs": "12",
    "ph": "11",
    "wip": "13",
    "arm": "1",
    "bts": "3",
    "w": "1",
    "s": "2",
    "ava": "2",
    "spec": [
      "V: Dogged"
    ],
    "childs": [
      {
        "id": 1,
        "code": "Default",
        "codename": "ADHL Engineer",
        "cost": "23",
        "swc": "0",
        "spec": [
          "Engineer"
        ],
        "bsw": [
          "Combi Rifle",
          "Adhesive Launcher"
        ],
        "ccw": [
          "Knife",
          "Breaker Pistol (2)",
          "D-Charges"
        ]
      },
      {
        "id": 2,
        "code": "Doctor",
        "codename": "",
        "cost": "23",
        "swc": "0",
        "spec": [
          "Doctor",
          "MediKit"
        ],
        "bsw": [
          "Combi Rifle",
          "Adhesive Launcher",
          "Nimbus Grenades"
        ],
        "ccw": [
          "Knife",
          "Breaker Pistol (2)"
        ]
      },
      {
        "id": 3,
        "code": "Flammenspeer",
        "codename": "",
        "cost": "24",
        "swc": "0.5",
        "spec": [
          "Engineer"
        ],
        "bsw": [
          "Combi Rifle",
          "Flammenspeer"
        ],
        "ccw": [
          "Knife",
          "Breaker Pistol (2)",
          "D-Charges"
        ]
      }
    ]
  },
  {
    "id": 7039,
    "army": "Aleph",
    "isc": "Teucer",
    "name": "Teucer",
    "type": "MI",
    "imp": "",
    "irr": "",
    "cube": "2",
    "mov": "4-2",
    "cc": "18",
    "bs": "14",
    "ph": "11",
    "wip": "14",
    "arm": "2",
    "bts": "6",
    "w": "1",
    "s": "2",
    "ava": "1",
    "spec": [
      "V: No Wound Incapacitation",
      "Marksmanship LX"
    ],
    "childs": [
      {
        "id": 1,
        "code": "Default",
        "codename": "Feuerbach X-Visor",
        "cost": "38",
        "swc": "1.5",
        "spec": [
          "X Visor"
        ],
        "bsw": [
          "Nanopulser",
          "Feuerbach"
        ],
        "ccw": [
          "Pistol",
          "CCW"
        ]
      },
      {
        "id": 2,
        "code": "Feuerbach MSV 2",
        "codename": "",
        "cost": "41",
        "swc": "2",
        "spec": [
          "Multispectral Visor L2"
        ],
        "bsw": [
          "Nanopulser",
          "Feuerbach"
        ],
        "ccw": [
          "Pistol",
          "CCW"
        ]
      },
      {
        "id": 3,
        "code": "K1 Sniper",
        "codename": "",
        "cost": "42",
        "swc": "1.5",
        "spec": [
          "Multispectral Visor L2"
        ],
        "bsw": [
          "Nanopulser",
          "K1 Sniper Rifle"
        ],
        "ccw": [
          "Pistol",
          "CCW"
        ]
      }
    ]
  },
  {
    "id": 7040,
    "army": "Aleph",
    "isc": "Drakios",
    "name": "Drakios",
    "ava": "1",
    "spec": [],
    "profiles": [
      {
        "id": 1,
        "type": "LI",
        "imp": "",
        "irr": "",
        "cube": "2",
        "mov": "4-4",
        "cc": "20",
        "bs": "12",
        "ph": "13",
        "wip": "13",
        "arm": "2",
        "bts": "0",
        "w": "1",
        "s": "2",
        "spec": [
          "V: No Wound Incapacitation",
          "Martial Arts L2"
        ],
        "bsw": [],
        "ccw": []
      },
      {
        "id": 2,
        "isc": "Devabot",
        "name": "Devabot",
        "image": "SP Devabot",
        "optionSpecific": "X",
        "type": "REM",
        "imp": "",
        "irr": "",
        "cube": "R",
        "hackable": "X",
        "mov": "6-4",
        "cc": "8",
        "bs": "10",
        "ph": "10",
        "wip": "11",
        "arm": "0",
        "bts": "3",
        "w": "1",
        "s": "2",
        "spec": [
          "G: Synchronized"
        ],
        "bsw": [
          "Heavy Flamethrower"
        ],
        "ccw": [
          "Electric Pulse"
        ],
        "independent": {
          "cost": "4",
          "swc": "0"
        }
      },
      {
        "id": 3,
        "isc": "Devabot",
        "name": "Devabot",
        "image": "SP Devabot",
        "type": "REM",
        "imp": "",
        "irr": "",
        "cube": "R",
        "hackable": "X",
        "mov": "6-4",
        "cc": "8",
        "bs": "10",
        "ph": "10",
        "wip": "11",
        "arm": "0",
        "bts": "3",
        "w": "1",
        "s": "2",
        "spec": [
          "G: Synchronized"
        ],
        "bsw": [
          "Heavy Flamethrower"
        ],
        "ccw": [
          "Electric Pulse"
        ],
        "independent": {
          "cost": "4",
          "swc": "0"
        }
      }
    ],
    "childs": [
      {
        "id": 1,
        "code": "Default",
        "codename": "1 Devabot",
        "cost": "34",
        "swc": "0",
        "spec": [],
        "bsw": [
          "Combi Rifle",
          "Heavy Flamethrower",
          "Blitzen"
        ],
        "ccw": [
          "Pistol",
          "AP CCW"
        ]
      },
      {
        "id": 2,
        "code": "2 Devabots",
        "codename": "",
        "cost": "37",
        "swc": "0",
        "profile": "1",
        "spec": [],
        "bsw": [
          "Combi Rifle",
          "Heavy Flamethrower",
          "Blitzen"
        ],
        "ccw": [
          "Pistol",
          "AP CCW"
        ]
      }
    ]
  },
  {
    "id": 7041,
    "army": "Aleph",
    "isc": "Scylla",
    "name": "Scylla",
    "ava": "1",
    "spec": [],
    "profiles": [
      {
        "id": 1,
        "type": "LI",
        "imp": "",
        "irr": "",
        "cube": "2",
        "mov": "4-4",
        "cc": "17",
        "bs": "12",
        "ph": "12",
        "wip": "13",
        "arm": "2",
        "bts": "3",
        "w": "1",
        "s": "2",
        "spec": [],
        "bsw": [],
        "ccw": []
      },
      {
        "id": 2,
        "isc": "Devabot",
        "name": "Devabot",
        "image": "SP Devabot",
        "optionSpecific": "X",
        "type": "REM",
        "imp": "",
        "irr": "",
        "cube": "R",
        "hackable": "X",
        "mov": "6-4",
        "cc": "8",
        "bs": "10",
        "ph": "10",
        "wip": "11",
        "arm": "0",
        "bts": "3",
        "w": "1",
        "s": "2",
        "spec": [
          "G: Synchronized",
          "Repeater"
        ],
        "bsw": [
          "Heavy Flamethrower"
        ],
        "ccw": [
          "Electric Pulse"
        ],
        "independent": {
          "cost": "7",
          "swc": "0"
        }
      },
      {
        "id": 3,
        "isc": "Devabot",
        "name": "Devabot",
        "image": "SP Devabot",
        "type": "REM",
        "imp": "",
        "irr": "",
        "cube": "R",
        "hackable": "X",
        "mov": "6-4",
        "cc": "8",
        "bs": "10",
        "ph": "10",
        "wip": "11",
        "arm": "0",
        "bts": "3",
        "w": "1",
        "s": "2",
        "spec": [
          "G: Synchronized",
          "Repeater"
        ],
        "bsw": [
          "Heavy Flamethrower"
        ],
        "ccw": [
          "Electric Pulse"
        ],
        "independent": {
          "cost": "7",
          "swc": "0"
        }
      }
    ],
    "childs": [
      {
        "id": 1,
        "code": "Default",
        "codename": "HD, 1 Devabot",
        "cost": "32",
        "swc": "0.5",
        "spec": [
          "Hacker",
          "Hacking Device"
        ],
        "bsw": [
          "Boarding Shotgun",
          "Nanopulser"
        ],
        "ccw": [
          "Pistol",
          "E/M CCW"
        ]
      },
      {
        "id": 2,
        "code": "HD, 2 Devabots",
        "codename": "",
        "cost": "36",
        "swc": "0.5",
        "profile": "1",
        "spec": [
          "Hacker",
          "Hacking Device"
        ],
        "bsw": [
          "Boarding Shotgun",
          "Nanopulser"
        ],
        "ccw": [
          "Pistol",
          "E/M CCW"
        ]
      },
      {
        "id": 3,
        "code": "AHD, 1 Devabot",
        "codename": "",
        "cost": "30",
        "swc": "0.5",
        "spec": [
          "Hacker",
          "Assault Hacking Device"
        ],
        "bsw": [
          "Boarding Shotgun",
          "Nanopulser"
        ],
        "ccw": [
          "Pistol",
          "E/M CCW"
        ]
      },
      {
        "id": 4,
        "code": "AHD, 2 Devabots",
        "codename": "",
        "cost": "34",
        "swc": "0.5",
        "profile": "1",
        "spec": [
          "Hacker",
          "Assault Hacking Device"
        ],
        "bsw": [
          "Boarding Shotgun",
          "Nanopulser"
        ],
        "ccw": [
          "Pistol",
          "E/M CCW"
        ]
      }
    ]
  },
  {
    "id": 7042,
    "army": "Aleph",
    "isc": "Acmon, Sergeant of Dactyls",
    "name": "Acmon",
    "type": "LI",
    "imp": "",
    "irr": "",
    "cube": "2",
    "mov": "4-4",
    "cc": "16",
    "bs": "13",
    "ph": "11",
    "wip": "14",
    "arm": "1",
    "bts": "3",
    "w": "1",
    "s": "2",
    "ava": "1",
    "spec": [
      "V: Dogged",
      "Engineer",
      "Fireteam: Enomotarchos"
    ],
    "childs": [
      {
        "id": 1,
        "code": "Default",
        "codename": "Engineer",
        "cost": "27",
        "swc": "0",
        "spec": [],
        "bsw": [
          "Combi Rifle",
          "Panzerfaust",
          "Nimbus Grenades",
          "D-Charges"
        ],
        "ccw": [
          "Knife",
          "Breaker Pistol (2)"
        ]
      }
    ]
  },
  {
    "id": 7043,
    "army": "Aleph",
    "isc": "Hector, Homeridae's Champion",
    "name": "Hector",
    "type": "HI",
    "imp": "",
    "irr": "",
    "cube": "2",
    "hackable": "X",
    "mov": "4-4",
    "cc": "23",
    "bs": "13",
    "ph": "14",
    "wip": "15",
    "arm": "5",
    "bts": "6",
    "w": "2",
    "s": "2",
    "ava": "1",
    "spec": [
      "X Visor",
      "Martial Arts L4",
      "Kinematika L2",
      "Strategos L1",
      "V: No Wound Incapacitation",
      "Fireteam: Enomotarchos"
    ],
    "childs": [
      {
        "id": 1,
        "code": "Default",
        "codename": "Plasma",
        "cost": "71",
        "swc": "0",
        "spec": [
          "Tinbot A (Deflector L1)"
        ],
        "bsw": [
          "Plasma Rifle",
          "Nanopulser",
          "Stun Grenades"
        ],
        "ccw": [
          "Heavy Pistol",
          "EXP CCW"
        ]
      },
      {
        "id": 2,
        "code": "Spitfire",
        "codename": "",
        "cost": "70",
        "swc": "2",
        "spec": [
          "Tinbot A (Deflector L1)"
        ],
        "bsw": [
          "Spitfire",
          "Nanopulser",
          "Stun Grenades"
        ],
        "ccw": [
          "Heavy Pistol",
          "EXP CCW"
        ]
      },
      {
        "id": 3,
        "code": "Plasma Lieutenant",
        "codename": "",
        "cost": "71",
        "swc": "0",
        "spec": [
          "Tinbot A (Deflector L1)",
          "Lieutenant"
        ],
        "bsw": [
          "Plasma Rifle",
          "Nanopulser",
          "Stun Grenades"
        ],
        "ccw": [
          "Heavy Pistol",
          "EXP CCW"
        ]
      },
      {
        "id": 4,
        "code": "Spitfire Lieutenant",
        "codename": "",
        "cost": "70",
        "swc": "2",
        "spec": [
          "Tinbot A (Deflector L1)",
          "Lieutenant"
        ],
        "bsw": [
          "Spitfire",
          "Nanopulser",
          "Stun Grenades"
        ],
        "ccw": [
          "Heavy Pistol",
          "EXP CCW"
        ]
      }
    ]
  }
]